\relax 
\providecommand\hyper@newdestlabel[2]{}
\providecommand\HyperFirstAtBeginDocument{\AtBeginDocument}
\HyperFirstAtBeginDocument{\ifx\hyper@anchor\@undefined
\global\let\oldcontentsline\contentsline
\gdef\contentsline#1#2#3#4{\oldcontentsline{#1}{#2}{#3}}
\global\let\oldnewlabel\newlabel
\gdef\newlabel#1#2{\newlabelxx{#1}#2}
\gdef\newlabelxx#1#2#3#4#5#6{\oldnewlabel{#1}{{#2}{#3}}}
\AtEndDocument{\ifx\hyper@anchor\@undefined
\let\contentsline\oldcontentsline
\let\newlabel\oldnewlabel
\fi}
\fi}
\global\let\hyper@last\relax 
\gdef\HyperFirstAtBeginDocument#1{#1}
\providecommand\HyField@AuxAddToFields[1]{}
\providecommand\HyField@AuxAddToCoFields[2]{}
\@writefile{toc}{\contentsline {section}{\numberline {1}Tasks}{1}{section.1}}
\@writefile{toc}{\contentsline {subsection}{\numberline {1.1}Task 1: Compute deciles of the total amount less the tolls.}{1}{subsection.1.1}}
\@writefile{toc}{\contentsline {subsubsection}{\numberline {1.1.1}Methods}{1}{subsubsection.1.1.1}}
\@writefile{toc}{\contentsline {subsubsection}{\numberline {1.1.2}Results}{1}{subsubsection.1.1.2}}
\@writefile{lot}{\contentsline {table}{\numberline {1}{\ignorespaces Deciles of the total amount less the tolls}}{1}{table.1}}
\newlabel{my-label}{{1}{1}{Deciles of the total amount less the tolls}{table.1}{}}
\@writefile{lot}{\contentsline {table}{\numberline {2}{\ignorespaces Deciles of the total amount less the tolls(only 100 head lines)}}{2}{table.2}}
\newlabel{my-label}{{2}{2}{Deciles of the total amount less the tolls(only 100 head lines)}{table.2}{}}
\@writefile{toc}{\contentsline {subsubsection}{\numberline {1.1.3}Computing time and programming time}{2}{subsubsection.1.1.3}}
\@writefile{lot}{\contentsline {table}{\numberline {3}{\ignorespaces Time Performance of Method 1}}{2}{table.3}}
\newlabel{my-label}{{3}{2}{Time Performance of Method 1}{table.3}{}}
\@writefile{toc}{\contentsline {subsubsection}{\numberline {1.1.4}Summary of task1}{2}{subsubsection.1.1.4}}
\@writefile{toc}{\contentsline {subsection}{\numberline {1.2}Task 2: Fit a linear regression predicting total amount less the tolls using trip time as the predictor.}{3}{subsection.1.2}}
\@writefile{toc}{\contentsline {subsubsection}{\numberline {1.2.1}Methods}{3}{subsubsection.1.2.1}}
\@writefile{toc}{\contentsline {subsubsection}{\numberline {1.2.2}Results}{3}{subsubsection.1.2.2}}
\@writefile{lot}{\contentsline {table}{\numberline {4}{\ignorespaces Results of Method 3}}{3}{table.4}}
\newlabel{my-label}{{4}{3}{Results of Method 3}{table.4}{}}
\@writefile{lot}{\contentsline {table}{\numberline {5}{\ignorespaces Results of Method 4}}{3}{table.5}}
\newlabel{my-label}{{5}{3}{Results of Method 4}{table.5}{}}
\@writefile{toc}{\contentsline {subsubsection}{\numberline {1.2.3}Computing time and programming time}{4}{subsubsection.1.2.3}}
\@writefile{lot}{\contentsline {table}{\numberline {6}{\ignorespaces Time Performance of Method 3 and Method 4}}{4}{table.6}}
\newlabel{my-label}{{6}{4}{Time Performance of Method 3 and Method 4}{table.6}{}}
\@writefile{toc}{\contentsline {subsubsection}{\numberline {1.2.4}Summary of task 2}{4}{subsubsection.1.2.4}}
\@writefile{toc}{\contentsline {subsection}{\numberline {1.3}Task 3: Use multiple regression and add the surchage as a regressor, estimating the resulting coefficients.}{4}{subsection.1.3}}
\@writefile{toc}{\contentsline {subsubsection}{\numberline {1.3.1}Methods}{4}{subsubsection.1.3.1}}
\@writefile{toc}{\contentsline {subsubsection}{\numberline {1.3.2}Results}{4}{subsubsection.1.3.2}}
\@writefile{lot}{\contentsline {table}{\numberline {7}{\ignorespaces Result of Method 5}}{4}{table.7}}
\newlabel{my-label}{{7}{4}{Result of Method 5}{table.7}{}}
\@writefile{toc}{\contentsline {subsubsection}{\numberline {1.3.3}Computing time and programming time}{5}{subsubsection.1.3.3}}
\@writefile{lot}{\contentsline {table}{\numberline {8}{\ignorespaces Time Performance of Method 5}}{5}{table.8}}
\newlabel{my-label}{{8}{5}{Time Performance of Method 5}{table.8}{}}
\@writefile{toc}{\contentsline {subsubsection}{\numberline {1.3.4}Summary of task 3}{5}{subsubsection.1.3.4}}
\@writefile{toc}{\contentsline {section}{\numberline {2}Appendix}{6}{section.2}}
\@writefile{toc}{\contentsline {subsection}{\numberline {2.1}Method 1}{6}{subsection.2.1}}
\@writefile{toc}{\contentsline {subsection}{\numberline {2.2}Method 2}{7}{subsection.2.2}}
\@writefile{toc}{\contentsline {subsection}{\numberline {2.3}Method 3}{8}{subsection.2.3}}
\@writefile{toc}{\contentsline {subsection}{\numberline {2.4}Method 4}{11}{subsection.2.4}}
\@writefile{toc}{\contentsline {subsection}{\numberline {2.5}Method 5}{13}{subsection.2.5}}
